# Blender v2.79 (sub 0) OBJ File: ''
# www.blender.org
mtllib 2dwidget.mtl
o Plane_Plane.002
v -400.000000 -240.000046 -0.000054
v 400.000000 -240.000046 -0.000054
v 400.000000 239.999954 0.000054
v -400.000000 239.999954 0.000054
vt 0.000052 0.000052
vt 0.999948 0.000052
vt 1.000000 1.000000
vt 0.000000 1.000000
vn 0.0000 -0.0000 1.0000
usemtl None
s 1
f 1/1/1 2/2/1 3/3/1 4/4/1
