# Blender v2.79 (sub 0) OBJ File: ''
# www.blender.org
mtllib buttonbnew.mtl
o test.001
v -50.502693 -52.702793 -0.000033
v 49.497303 -52.702793 -0.000033
v 49.497303 47.297203 0.000041
v -50.502693 47.297203 0.000041
vt 0.000052 0.000052
vt 0.999948 0.000052
vt 1.000000 1.000000
vt 0.000000 1.000000
vn 0.0000 -0.0000 1.0000
usemtl None.003
s 1
f 1/1/1 2/2/1 3/3/1 4/4/1
