# Blender v2.79 (sub 0) OBJ File: ''
# www.blender.org
mtllib version.mtl
o test.001
v -303.016174 -158.108383 -0.000057
v 296.983826 -158.108383 -0.000057
v 296.983826 141.891617 0.000062
v -303.016174 141.891617 0.000062
vt 0.000052 0.000052
vt 0.999948 0.000052
vt 1.000000 1.000000
vt 0.000000 1.000000
vn 0.0000 -0.0000 1.0000
usemtl None.003
s 1
f 1/1/1 2/2/1 3/3/1 4/4/1
